%YAML 1.1
%TAG !u! tag:unity3d.com,2011:
--- !u!1045 &1
EditorBuildSettings:
  m_ObjectHideFlags: 0
  serializedVersion: 2
  m_Scenes: []
  m_configObjects:
    Unity.XR.Oculus.Settings: {fileID: 11400000, guid: 2462e2f59f6390e49992c082e411a4bc, type: 2}
    com.unity.xr.management.loader_settings: {fileID: 11400000, guid: 98f367552624f3e48b343613c3cd2b23, type: 2}
